…
                   c(Events = ~ sum(! is.na(.x) & .x>0),
                   Volume = ~ sum(.x, na.rm = TRUE)),
                   .names = paste0('{.col}_{.fn}'))) %>%
  t %>%         # t transposes, but also converts to an array, with dimnames
  tibble(Item = dimnames(.)[[1]]) %>%
  rename(Val = 1) %>%
  mutate(group = sub('^.*_', '', Item),
         CSO   = substr(Item, 1,7)) %>%
  pivot_wider(id_cols = CSO, names_from = group, values_from = Val) %>%
  mutate(VolumeMG = round(Volume/(10^6),2)) %>%
  inner_join(locations_lookup, by = 'CSO') %>%
  select(CSO, Location, Events, VolumeMG, Volume) %>%
  arrange(-Volume)
totals_by_cso
#> # A tibble: 31 x 5
#>    CSO     Location             Events[,1] VolumeMG[,1] Volume[,1]
#>    <chr>   <chr>                     <dbl>        <dbl>      <dbl>
#>  1 CSO_017 Preble at Marginal          158        358.   358445700
#>  2 CSO_018 Franklin at Marginal        151        131.   131461600
#>  3 CSO_010 Mackworth St                129         93.8   93815000
#>  4 CSO_025 Long Wharf                   86         79.4   79425000
#>  5 CSO_007 Ocean Ave                    35         67.3   67269000
#>  6 CSO_026 Maple St                     92         65.4   65427000
#>  7 CSO_020 Northeast PS                107         46.0   46045000
#>  8 CSO_015 Dartmouth at Baxter         112         40.1   40076000
#>  9 CSO_023 India St PS                  77         38.5   38526000
#> 10 CSO_005 Randall St                  124         34.5   34525000
#> # ... with 21 more rows
```
…
                   c(Events = ~ sum(! is.na(.x) & .x>0),
                   Volume = ~ sum(.x, na.rm = TRUE)),
                   .names = paste0('{.col}_{.fn}'))) %>%
  t %>%         # t transposes, but also converts to an array, with dimnames
  tibble(Item = dimnames(.)[[1]]) %>%
  rename(Val = 1) %>%
  mutate(group = sub('^.*_', '', Item),
         CSO   = substr(Item, 1,7)) %>%
  pivot_wider(id_cols = CSO, names_from = group, values_from = Val) %>%
  mutate(VolumeMG = round(Volume/(10^6),2)) %>%
  inner_join(locations_lookup, by = 'CSO') %>%
  select(CSO, Location, Events, VolumeMG, Volume) %>%
  arrange(-Volume)
data_2019
#> # A tibble: 31 x 5
#>    CSO     Location               Events[,1] VolumeMG[,1] Volume[,1]
#>    <chr>   <chr>                       <dbl>        <dbl>      <dbl>
#>  1 CSO_017 "Preble at Marginal"           28        40.7    40724000
#>  2 CSO_018 "Franklin at Marginal"         31        16.6    16607000
#>  3 CSO_010 "Mackworth St"                 27        11.5    11485000
#>  4 CSO_015 "Dartmouth at Baxter"          24         6.98    6975100
#>  5 CSO_025 "Long Wharf"                   17         6.97    6970000
#>  6 CSO_026 "Maple St"                     15         6.38    6377000
#>  7 CSO_005 "Randall St"                   29         5.8     5799000
#>  8 CSO_023 "India St PS"                  16         5.56    5555000
#>  9 CSO_012 "Vannah Ave"                   38         5.36    5355000
#> 10 CSO_042 "Warren Ave 60\""              25         4.59    4593000
#> # ... with 21 more rows
```

## Calculate Totals by Event

The CALCULATED total volumes here incorporate some data corrections from
2019 that were missed in the source Excel File, so `eventtotal` and
`calcvolume` do not match exactly.

``` r
totals_by_event <- the_data %>%
  mutate(active_locs = rowSums(! is.na(.[grep("CSO", names(.))]) &
                                        .[grep("CSO", names(.))] > 0),
         calcvolume  = rowSums(.[grep("CSO", names(.))], na.rm = TRUE)) %>%
  select(-contains('CSO'))
totals_by_event
#> # A tibble: 206 x 9
#>    firstdate  lastdate    days totalprecip maxprecip eventtotal  Year
#>    <date>     <date>     <dbl>       <dbl>     <dbl>      <dbl> <dbl>
#>  1 2015-01-18 2015-01-19     2        0.69      0.23    1606300  2015
#>  2 2015-03-14 2015-03-15     2        0.83      0.18    1718000  2015
#>  3 2015-03-26 2015-03-27     2        0.59      0.12     615000  2015
#>  4 2015-04-10 2015-04-10     1        0.43      0.07     625000  2015
#>  5 2015-04-20 2015-04-23     4        3.81      0.5    50304000  2015
#>  6 2015-05-10 2015-05-10     1        0.48      0.44    3023000  2015
#>  7 2015-05-12 2015-05-12     1        0.19      0.18      27000  2015
#>  8 2015-05-19 2015-05-19     1        0.23      0.07       9600  2015
#>  9 2015-05-28 2015-05-29     2        1.08      0.64    3234000  2015
#> 10 2015-05-31 2015-06-02     3        2.84      0.31    8658000  2015
#> # ... with 196 more rows, and 2 more variables: active_locs <dbl>,
#> #   calcvolume <dbl>
```
…
