…
    ## Warning: The `x` argument of `as_tibble.matrix()` must have unique column names if `.name_repair` is omitted as of tibble 2.0.0.
    ## Using compatibility `.name_repair`.
    ## This warning is displayed once every 8 hours.
    ## Call `lifecycle::last_warnings()` to see where this warning was generated.

``` r
CSO_locs_15
```

    ## # A tibble: 31 x 2
    ##    CSO     Location      
    ##    <chr>   <chr>         
    ##  1 CSO_002 Arcadia St PS 
    ##  2 CSO_004 Tukey's Siphon
    ##  3 CSO_005 Randall St    
    ##  4 CSO_006 Johansen St   
    ##  5 CSO_007 Ocean Ave     
    ##  6 CSO_008 Clifton St    
    ##  7 CSO_009 George St     
    ##  8 CSO_010 Mackworth St  
    ##  9 CSO_011 Codman St     
    ## 10 CSO_012 Vannah Ave    
    ## # ... with 21 more rows
…
